<svg width="170" height="42" viewBox="0 0 170 42" fill="none" xmlns="http://www.w3.org/2000/svg">
<path fill-rule="evenodd" clip-rule="evenodd" d="M100.453 34.1841C107.477 34.1841 113.171 28.49 113.171 21.4659C113.171 14.4418 107.477 8.74768 100.453 8.74768C93.4286 8.74768 87.7344 14.4418 87.7344 21.4659C87.7344 28.49 93.4286 34.1841 100.453 34.1841ZM100.453 30.9369C105.683 30.9369 109.924 26.6966 109.924 21.4659C109.924 16.2352 105.683 11.9949 100.453 11.9949C95.2219 11.9949 90.9816 16.2352 90.9816 21.4659C90.9816 26.6966 95.2219 30.9369 100.453 30.9369Z" fill="white"/>
<path d="M139.002 28.2001C139.731 28.7411 139.883 29.783 139.243 30.4273C136.939 32.7475 133.747 34.1841 130.219 34.1841C123.195 34.1841 117.5 28.49 117.5 21.4659C117.5 14.4418 123.195 8.74768 130.219 8.74768C134.179 8.74768 137.717 10.5583 140.05 13.3969C140.613 14.0816 140.388 15.08 139.644 15.5626C138.884 16.056 137.876 15.8183 137.271 15.1438C135.537 13.2109 133.02 11.9949 130.219 11.9949C124.988 11.9949 120.748 16.2352 120.748 21.4659C120.748 26.6966 124.988 30.9369 130.219 30.9369C132.698 30.9369 134.955 29.9842 136.643 28.425C137.294 27.8233 138.29 27.6716 139.002 28.2001Z" fill="white"/>
<path d="M164.588 34.1841C163.638 34.2063 160.932 34.1841 159.025 34.2063C158.285 34.1944 157.656 34.1841 157.279 34.1841C150.255 34.1841 144.56 28.4899 144.56 21.4659C144.56 14.4419 150.255 8.74768 157.279 8.74768C164.021 8.74768 169.538 13.9951 169.969 20.629C169.987 20.7254 169.997 20.8232 169.997 20.9247V26.6073C169.997 27.5039 169.27 28.2309 168.373 28.2309C167.477 28.2309 166.75 27.5039 166.75 26.6073V21.7365L166.748 21.653L166.75 21.4659C166.75 16.2352 162.509 11.9949 157.279 11.9949C152.048 11.9949 147.808 16.2352 147.808 21.4659C147.808 26.6966 152.048 30.9369 157.279 30.9369H165.397C166.293 30.9369 167.02 31.6639 167.02 32.5605C167.02 33.4571 166.293 34.1841 165.397 34.1841H164.588Z" fill="white"/>
<path d="M73.2573 30.9369L73.3925 30.9375C73.4071 30.9375 73.4217 30.9375 73.4363 30.9375C73.4509 30.9375 73.4656 30.9374 73.4802 30.9374C73.5839 30.9372 73.6899 30.9369 73.7984 30.9369C75.3472 30.9369 76.5367 30.3791 77.4302 29.69C78.3237 29.001 78.7704 28.1321 78.7704 27.0835C78.7704 26.0049 78.2939 25.211 77.3408 24.7016C76.3877 24.1623 74.9135 23.638 72.918 23.1287C71.1013 22.6493 69.6121 22.17 68.4506 21.6906C67.3188 21.1813 66.336 20.4472 65.502 19.4885C64.6979 18.4998 64.2958 17.2115 64.2958 15.6236C64.2958 15.5695 64.2944 15.5491 64.2934 15.5342C64.292 15.5138 64.2914 15.5035 64.2958 15.4307V15.2305C64.3919 14.1222 64.7872 13.1225 65.4184 12.2081C66.163 11.1295 67.2203 10.2757 68.5903 9.6465C69.9305 9.04729 71.4923 8.74768 73.2495 8.74768C73.2972 8.74768 73.3448 8.7478 73.3924 8.74804C77.3532 8.74804 80.8911 10.5583 83.2236 13.3969C83.7863 14.0816 83.5613 15.08 82.818 15.5626C82.058 16.056 81.0496 15.8183 80.4445 15.1438C78.7106 13.2109 76.1935 11.9949 73.3925 11.9949H73.2573C73.2059 11.995 73.1746 11.9949 73.122 11.9949C71.5733 11.9949 70.5113 12.5527 69.6178 13.2418C68.9844 13.7303 68.5755 14.3091 68.3911 14.9783C68.3433 15.1519 68.3309 15.3327 68.3309 15.5127V15.7833C68.3309 16.5922 68.6144 17.1067 69.1207 17.6459C69.6568 18.1553 70.312 18.5747 71.0864 18.9043C71.8905 19.2039 72.9925 19.5484 74.3923 19.9379C76.1495 20.4173 77.5791 20.8967 78.6811 21.376C79.783 21.8254 80.7212 22.5145 81.4955 23.4433C82.2997 24.3721 82.7166 25.5855 82.7464 27.0835C82.7464 28.4317 82.3741 29.6451 81.6296 30.7237C80.885 31.8023 79.8277 32.6561 78.4577 33.2853C77.1174 33.8845 75.5556 34.1841 73.7984 34.1841C73.7075 34.1841 73.6169 34.1837 73.5266 34.1828L73.3926 34.1841C69.4318 34.1841 66.0279 32.4153 63.6954 29.5766C63.1327 28.8919 63.3577 27.8936 64.101 27.411C64.861 26.9175 65.8694 27.1553 66.4745 27.8298C68.1808 29.7318 70.51 30.8988 73.2573 30.9369Z" fill="white"/>
<path fill-rule="evenodd" clip-rule="evenodd" d="M5.27484 27.1748C2.51145 26.3368 0.5 23.7695 0.5 20.7324C0.5 17.7049 2.49878 15.1443 5.24872 14.2981C7.94381 5.99929 15.7399 0 24.9372 0C34.1218 0 41.909 5.98273 44.6145 14.2637C47.4238 15.073 49.4787 17.6627 49.4787 20.7324C49.4787 23.8116 47.411 26.4079 44.5884 27.2086C41.8592 35.4484 34.0924 41.393 24.9372 41.393C15.7694 41.393 7.99389 35.4322 5.27484 27.1748ZM41.1006 27.4634H9.14845C11.767 33.7028 17.934 38.0849 25.1245 38.0849C32.315 38.0849 38.482 33.7028 41.1006 27.4634ZM41.0718 14.0015C38.4371 7.79833 32.2888 3.44804 25.1245 3.44804C17.9602 3.44804 11.8119 7.79833 9.17718 14.0015H41.0718ZM3.36425 20.7325C3.36425 18.597 5.09545 16.8658 7.23098 16.8658H42.7477C44.8832 16.8658 46.6144 18.597 46.6144 20.7325C46.6144 22.8681 44.8832 24.5993 42.7477 24.5993H7.23098C5.09544 24.5993 3.36425 22.8681 3.36425 20.7325Z" fill="white"/>
</svg>
