<svg width="10" height="11" viewBox="0 0 10 11" fill="none" xmlns="http://www.w3.org/2000/svg">
<path d="M1.04224 4.33098H9.06266" stroke="#C1C1C1" stroke-width="0.5" stroke-linecap="round" stroke-linejoin="round"/>
<path d="M7.04912 6.08873H7.05329" stroke="#C1C1C1" stroke-width="0.5" stroke-linecap="round" stroke-linejoin="round"/>
<path d="M5.05229 6.08873H5.05646" stroke="#C1C1C1" stroke-width="0.5" stroke-linecap="round" stroke-linejoin="round"/>
<path d="M3.05205 6.08873H3.05622" stroke="#C1C1C1" stroke-width="0.5" stroke-linecap="round" stroke-linejoin="round"/>
<path d="M7.04912 7.83763H7.05329" stroke="#C1C1C1" stroke-width="0.5" stroke-linecap="round" stroke-linejoin="round"/>
<path d="M5.05229 7.83763H5.05646" stroke="#C1C1C1" stroke-width="0.5" stroke-linecap="round" stroke-linejoin="round"/>
<path d="M3.05205 7.83763H3.05622" stroke="#C1C1C1" stroke-width="0.5" stroke-linecap="round" stroke-linejoin="round"/>
<path d="M6.86834 1V2.48079" stroke="#C1C1C1" stroke-width="0.5" stroke-linecap="round" stroke-linejoin="round"/>
<path d="M3.23333 1V2.48079" stroke="#C1C1C1" stroke-width="0.5" stroke-linecap="round" stroke-linejoin="round"/>
<path fill-rule="evenodd" clip-rule="evenodd" d="M6.95696 1.71014H3.14684C1.82539 1.71014 1 2.44628 1 3.79941V7.87157C1 9.24598 1.82539 9.99914 3.14684 9.99914H6.95279C8.27841 9.99914 9.09963 9.25875 9.09963 7.90562V3.79941C9.1038 2.44628 8.28258 1.71014 6.95696 1.71014Z" stroke="#C1C1C1" stroke-width="0.5" stroke-linecap="round" stroke-linejoin="round"/>
</svg>
