<svg width="71" height="71" viewBox="0 0 71 71" fill="none" xmlns="http://www.w3.org/2000/svg">
<g filter="url(#filter0_i_66_292)">
<circle cx="35.5002" cy="35.5002" r="17.5002" fill="white"/>
</g>
<path d="M39.6938 31.1384L31.4178 39.4145" stroke="#1C1C1C" stroke-width="1.01775" stroke-linecap="round"/>
<path d="M39.6938 39.4137L31.4178 31.1376" stroke="#1C1C1C" stroke-width="1.01775" stroke-linecap="round"/>
<defs>
<filter id="filter0_i_66_292" x="18" y="18" width="35.0005" height="35.0004" filterUnits="userSpaceOnUse" color-interpolation-filters="sRGB">
<feFlood flood-opacity="0" result="BackgroundImageFix"/>
<feBlend mode="normal" in="SourceGraphic" in2="BackgroundImageFix" result="shape"/>
<feColorMatrix in="SourceAlpha" type="matrix" values="0 0 0 0 0 0 0 0 0 0 0 0 0 0 0 0 0 0 127 0" result="hardAlpha"/>
<feOffset/>
<feGaussianBlur stdDeviation="5.08875"/>
<feComposite in2="hardAlpha" operator="arithmetic" k2="-1" k3="1"/>
<feColorMatrix type="matrix" values="0 0 0 0 0 0 0 0 0 0 0 0 0 0 0 0 0 0 0.3 0"/>
<feBlend mode="normal" in2="shape" result="effect1_innerShadow_66_292"/>
</filter>
</defs>
</svg>
